Temporal multilayer network with global relax rates
…
This output is parsed by run_infomap_multilayer to
obtain a table in which each state node (combination of a physical node
in a layer) is assigned to a module. This can be obtained by (after
running the code above):

#relaxrate_modules$modules
relaxrate_modules %>% select(node_id, layer_id, node_name, type, module)

## # A tibble: 7,062 × 5
##    node_id layer_id node_name type  module
##      <int>    <int> <chr>     <chr>  <int>
##  1       1        1 aca.ser   plant      1
##  2       1        2 aca.ser   plant     10
##  3       1        3 aca.ser   plant     15
##  4       1        4 aca.ser   plant     25
##  5       1        5 aca.ser   plant     31
##  6       1        6 aca.ser   plant     37
##  7       2        1 alo.gra   plant      1
##  8       2        3 alo.gra   plant     16
##  9       2        4 alo.gra   plant     25
## 10       2        5 alo.gra   plant     35
## # … with 7,052 more rows
