Temporal multilayer network with interlayer edges
…
This output is parsed by run_infomap_multilayer to
obtain a table in which each state node (combination of a physical node
in a layer) is assigned to a module. This can be obtained by:

multilayer_siberia_modules$modules %>% select(node_id, layer_id, node_name, type, module)

## # A tibble: 378 × 5
##    node_id layer_id node_name               type  module
##      <int>    <int> <chr>                   <chr>  <int>
##  1       1        1 Amalaraeus_penicilliger paras      2
##  2       1        2 Amalaraeus_penicilliger paras      2
##  3       1        3 Amalaraeus_penicilliger paras      2
##  4       1        4 Amalaraeus_penicilliger paras      2
##  5       1        5 Amalaraeus_penicilliger paras      2
##  6       1        6 Amalaraeus_penicilliger paras      2
##  7       2        1 Amerosejus_corbicula    paras     22
##  8       2        2 Amerosejus_corbicula    paras     22
##  9       2        3 Amerosejus_corbicula    paras     22
## 10       3        1 Amphipsylla_sibirica    paras     19
## # … with 368 more rows
